^C:\USERS\IHASC\SOURCE\REPOS\C++\MAO.PLAYINGCARDS\MAO.PLAYINGCARDS\DEBUG\SOURCE.OBJ
C:\USERS\IHASC\SOURCE\REPOS\C++\MAO.PLAYINGCARDS\DEBUG\MAO.PLAYINGCARDS.ILK
C:\USERS\IHASC\SOURCE\REPOS\C++\MAO.PLAYINGCARDS\DEBUG\MAO.PLAYINGCARDS.EXE
C:\USERS\IHASC\SOURCE\REPOS\C++\MAO.PLAYINGCARDS\DEBUG\MAO.PLAYINGCARDS.PDB
